…
``` r
nyc_transit = 
  read_csv("./data/NYC_Transit_Subway_Entrance_And_Exit_Data.csv",
           col_types = cols(Route8 = "c", Route9 = "c", Route10 = "c", Route11 = "c")) %>% 
  janitor::clean_names() %>% 
  select(
    line, starts_with("station"), starts_with("route"), entry, exit_only, vending,          entrance_type, ada) %>% 
  mutate(entry = ifelse(entry == "YES", TRUE, FALSE))

nyc_transit
```

    ## # A tibble: 1,868 × 21
    ##   line     station_…¹ stati…² stati…³ stati…⁴ route1 route2 route3 route4 route5
    ##   <chr>    <chr>        <dbl>   <dbl> <chr>   <chr>  <chr>  <chr>  <chr>  <chr> 
    ## 1 4 Avenue 25th St       40.7   -74.0 (40.66… R      <NA>   <NA>   <NA>   <NA>  
    ## 2 4 Avenue 25th St       40.7   -74.0 (40.66… R      <NA>   <NA>   <NA>   <NA>  
    ## 3 4 Avenue 36th St       40.7   -74.0 (40.65… N      R      <NA>   <NA>   <NA>  
    ## 4 4 Avenue 36th St       40.7   -74.0 (40.65… N      R      <NA>   <NA>   <NA>  
    ## 5 4 Avenue 36th St       40.7   -74.0 (40.65… N      R      <NA>   <NA>   <NA>  
    ## # … with 1,863 more rows, 11 more variables: route6 <chr>, route7 <chr>,
    ## #   route8 <chr>, route9 <chr>, route10 <chr>, route11 <chr>, entry <lgl>,
    ## #   exit_only <chr>, vending <chr>, entrance_type <chr>, ada <lgl>, and
    ## #   abbreviated variable names ¹​station_name, ²​station_latitude,
    ## #   ³​station_longitude, ⁴​station_location
    ## # ℹ Use `print(n = ...)` to see more rows, and `colnames()` to see all variable names
…
Then we are going to answer these questions:

-   How many distinct stations are there?

The following code chunk selects station name and line, and then uses
`distinct()` to obtain all unique combinations. As a result, the number
of rows in this dataset is the number of unique stations.

``` r
nyc_transit %>% 
  select(line, station_name) %>% 
  distinct
```

    ## # A tibble: 465 × 2
    ##   line     station_name
    ##   <chr>    <chr>       
    ## 1 4 Avenue 25th St     
    ## 2 4 Avenue 36th St     
    ## 3 4 Avenue 45th St     
    ## 4 4 Avenue 53rd St     
    ## 5 4 Avenue 59th St     
    ## # … with 460 more rows
    ## # ℹ Use `print(n = ...)` to see more rows
There are 465 distinct stations.

-   How many stations are ADA compliant?

This produces a dataframe in which the number of rows is the number of
ADA compliant stations.

``` r
nyc_transit %>% 
  filter(ada == TRUE) %>% 
  select(line, station_name) %>% 
  distinct
```

    ## # A tibble: 84 × 2
    ##   line            station_name            
    ##   <chr>           <chr>                   
    ## 1 4 Avenue        Atlantic Av-Barclays Ctr
    ## 2 4 Avenue        DeKalb Av               
    ## 3 4 Avenue        Pacific St              
    ## 4 42nd St Shuttle Grand Central           
    ## 5 6 Avenue        34th St                 
    ## # … with 79 more rows
    ## # ℹ Use `print(n = ...)` to see more rows
…
``` r
nyc_transit %>% 
  pivot_longer(
    route1:route11,
    names_to = "route_num",
    values_to = "route") %>% 
  filter(route == "A") %>% 
  select(station_name, line) %>% 
  distinct
```

    ## # A tibble: 60 × 2
    ##   station_name                  line           
    ##   <chr>                         <chr>          
    ## 1 Times Square                  42nd St Shuttle
    ## 2 125th St                      8 Avenue       
    ## 3 145th St                      8 Avenue       
    ## 4 14th St                       8 Avenue       
    ## 5 168th St - Washington Heights 8 Avenue       
    ## # … with 55 more rows
    ## # ℹ Use `print(n = ...)` to see more rows
…
mr_tw
```

    ## # A tibble: 547 × 15
    ##   dumpster month  year date                weight_tons volume_…¹ plast…² polys…³
    ##      <dbl> <chr> <int> <dttm>                    <dbl>     <dbl>   <dbl>   <dbl>
    ## 1        1 May    2014 2014-05-16 00:00:00        4.31        18    1450    1820
    ## 2        2 May    2014 2014-05-16 00:00:00        2.74        13    1120    1030
    ## 3        3 May    2014 2014-05-16 00:00:00        3.45        15    2450    3100
    ## 4        4 May    2014 2014-05-17 00:00:00        3.1         15    2380    2730
    ## 5        5 May    2014 2014-05-17 00:00:00        4.06        18     980     870
    ## # … with 542 more rows, 7 more variables: cigarette_butts <dbl>,
    ## #   glass_bottles <dbl>, grocery_bags <dbl>, chip_bags <dbl>,
    ## #   sports_balls <int>, homes_powered <dbl>, trash_wheel <chr>, and abbreviated
    ## #   variable names ¹​volume_cubic_yards, ²​plastic_bottles, ³​polystyrene
    ## # ℹ Use `print(n = ...)` to see more rows, and `colnames()` to see all variable names
…
``` r
prof_tw = 
  readxl::read_excel("./data/Trash Wheel Collection Data.xlsx", 
                     sheet = "Professor Trash Wheel", range = "A2:M96") %>%
  janitor::clean_names() %>% 
  filter(!is.na(dumpster)) %>% 
  mutate(
    trash_wheel = "Professor",
    year = as.integer(year)
    )

prof_tw
```

    ## # A tibble: 94 × 14
    ##   dumpster month     year date                weight_t…¹ volum…² plast…³ polys…⁴
    ##      <dbl> <chr>    <int> <dttm>                   <dbl>   <dbl>   <dbl>   <dbl>
    ## 1        1 January   2017 2017-01-02 00:00:00       1.79      15    1950    6080
    ## 2        2 January   2017 2017-01-30 00:00:00       1.58      15    9540   11230
    ## 3        3 February  2017 2017-02-26 00:00:00       2.32      18    8350    9210
    ## 4        4 February  2017 2017-02-26 00:00:00       3.72      15    8590    1030
    ## 5        5 February  2017 2017-02-28 00:00:00       1.45      15    7830    9950
    ## # … with 89 more rows, 6 more variables: cigarette_butts <dbl>,
    ## #   glass_bottles <dbl>, grocery_bags <dbl>, chip_bags <dbl>,
    ## #   homes_powered <dbl>, trash_wheel <chr>, and abbreviated variable names
    ## #   ¹​weight_tons, ²​volume_cubic_yards, ³​plastic_bottles, ⁴​polystyrene
    ## # ℹ Use `print(n = ...)` to see more rows, and `colnames()` to see all variable names

Combine those two dataframs to produce a single tidy dataset.

``` r
tw_tidy = 
  bind_rows(mr_tw, prof_tw) %>% 
  select(trash_wheel, everything())

tw_tidy
```

    ## # A tibble: 641 × 15
    ##   trash_wheel dumpster month  year date                weight_…¹ volum…² plast…³
    ##   <chr>          <dbl> <chr> <int> <dttm>                  <dbl>   <dbl>   <dbl>
    ## 1 Mr.                1 May    2014 2014-05-16 00:00:00      4.31      18    1450
    ## 2 Mr.                2 May    2014 2014-05-16 00:00:00      2.74      13    1120
    ## 3 Mr.                3 May    2014 2014-05-16 00:00:00      3.45      15    2450
    ## 4 Mr.                4 May    2014 2014-05-17 00:00:00      3.1       15    2380
    ## 5 Mr.                5 May    2014 2014-05-17 00:00:00      4.06      18     980
    ## # … with 636 more rows, 7 more variables: polystyrene <dbl>,
    ## #   cigarette_butts <dbl>, glass_bottles <dbl>, grocery_bags <dbl>,
    ## #   chip_bags <dbl>, sports_balls <int>, homes_powered <dbl>, and abbreviated
    ## #   variable names ¹​weight_tons, ²​volume_cubic_yards, ³​plastic_bottles
    ## # ℹ Use `print(n = ...)` to see more rows, and `colnames()` to see all variable names
…
    ## Rows: 822 Columns: 9
    ## ── Column specification ────────────────────────────────────────────────────────
    ## Delimiter: ","
    ## dbl  (8): prez_gop, gov_gop, sen_gop, rep_gop, prez_dem, gov_dem, sen_dem, r...
    ## date (1): mon
    ## 
    ## ℹ Use `spec()` to retrieve the full column specification for this data.
    ## ℹ Specify the column types or set `show_col_types = FALSE` to quiet this message.

``` r
pols_df
```

    ## # A tibble: 822 × 9
    ##    year month    gov_gop sen_gop rep_gop gov_dem sen_dem rep_dem president
    ##   <int> <chr>      <dbl>   <dbl>   <dbl>   <dbl>   <dbl>   <dbl> <chr>    
    ## 1  1947 January       23      51     253      23      45     198 dem      
    ## 2  1947 February      23      51     253      23      45     198 dem      
    ## 3  1947 March         23      51     253      23      45     198 dem      
    ## 4  1947 April         23      51     253      23      45     198 dem      
    ## 5  1947 May           23      51     253      23      45     198 dem      
    ## # … with 817 more rows
    ## # ℹ Use `print(n = ...)` to see more rows
…
    ## Rows: 787 Columns: 2
    ## ── Column specification ────────────────────────────────────────────────────────
    ## Delimiter: ","
    ## chr (1): date
    ## dbl (1): close
    ## 
    ## ℹ Use `spec()` to retrieve the full column specification for this data.
    ## ℹ Specify the column types or set `show_col_types = FALSE` to quiet this message.

``` r
snp_df
```

    ## # A tibble: 787 × 3
    ##    year month    close
    ##   <int> <chr>    <dbl>
    ## 1  1950 January   17.0
    ## 2  1950 February  17.2
    ## 3  1950 March     17.3
    ## 4  1950 April     18.0
    ## 5  1950 May       18.8
    ## # … with 782 more rows
    ## # ℹ Use `print(n = ...)` to see more rows
…
    ## Rows: 68 Columns: 13
    ## ── Column specification ────────────────────────────────────────────────────────
    ## Delimiter: ","
    ## dbl (13): Year, Jan, Feb, Mar, Apr, May, Jun, Jul, Aug, Sep, Oct, Nov, Dec
    ## 
    ## ℹ Use `spec()` to retrieve the full column specification for this data.
    ## ℹ Specify the column types or set `show_col_types = FALSE` to quiet this message.

``` r
unemployment
```

    ## # A tibble: 816 × 3
    ##    year month    unemployment
    ##   <int> <chr>           <dbl>
    ## 1  1948 January           3.4
    ## 2  1948 February          3.8
    ## 3  1948 March             4  
    ## 4  1948 April             3.9
    ## 5  1948 May               3.5
    ## # … with 811 more rows
    ## # ℹ Use `print(n = ...)` to see more rows
…
    ## Joining, by = c("year", "month")

``` r
final_version = full_join(result1, unemployment)
```

    ## Joining, by = c("year", "month")

``` r
final_version
```

    ## # A tibble: 828 × 11
    ##    year month    gov_gop sen_gop rep_gop gov_dem sen_dem rep_dem president close
    ##   <int> <chr>      <dbl>   <dbl>   <dbl>   <dbl>   <dbl>   <dbl> <chr>     <dbl>
    ## 1  1947 January       23      51     253      23      45     198 dem          NA
    ## 2  1947 February      23      51     253      23      45     198 dem          NA
    ## 3  1947 March         23      51     253      23      45     198 dem          NA
    ## 4  1947 April         23      51     253      23      45     198 dem          NA
    ## 5  1947 May           23      51     253      23      45     198 dem          NA
    ## # … with 823 more rows, and 1 more variable: unemployment <dbl>
    ## # ℹ Use `print(n = ...)` to see more rows, and `colnames()` to see all variable names
…
